
{
  "header": {
    "reportVersion": 1,
    "event": "Allocation failed - JavaScript heap out of memory",
    "trigger": "FatalError",
    "filename": "report.20201005.113720.16908.0.001.json",
    "dumpEventTime": "2020-10-05T11:37:20Z",
    "dumpEventTimeStamp": "1601890640982",
    "processId": 16908,
    "cwd": "C:\\Users\\Gareth\\Desktop\\Varsity\\VVS CODE\\vvs-full-project\\Angular\\Bikes4ERP",
    "commandLine": [
      "C:\\Program Files\\nodejs\\node.exe",
      "C:\\Users\\Gareth\\Desktop\\Varsity\\VVS CODE\\vvs-full-project\\Angular\\Bikes4ERP\\node_modules\\jest-worker\\build\\workers\\processChild.js"
    ],
    "nodejsVersion": "v12.16.0",
    "wordSize": 64,
    "arch": "x64",
    "platform": "win32",
    "componentVersions": {
      "node": "12.16.0",
      "v8": "7.8.279.23-node.31",
      "uv": "1.34.0",
      "zlib": "1.2.11",
      "brotli": "1.0.7",
      "ares": "1.15.0",
      "modules": "72",
      "nghttp2": "1.40.0",
      "napi": "5",
      "llhttp": "2.0.4",
      "http_parser": "2.9.3",
      "openssl": "1.1.1d",
      "cldr": "35.1",
      "icu": "64.2",
      "tz": "2019c",
      "unicode": "12.1"
    },
    "release": {
      "name": "node",
      "lts": "Erbium",
      "headersUrl": "https://nodejs.org/download/release/v12.16.0/node-v12.16.0-headers.tar.gz",
      "sourceUrl": "https://nodejs.org/download/release/v12.16.0/node-v12.16.0.tar.gz",
      "libUrl": "https://nodejs.org/download/release/v12.16.0/win-x64/node.lib"
    },
    "osName": "Windows_NT",
    "osRelease": "10.0.18363",
    "osVersion": "Windows 10 Home Single Language",
    "osMachine": "x86_64",
    "cpus": [
      {
        "model": "Intel(R) Core(TM) i5-8250U CPU @ 1.60GHz",
        "speed": 1800,
        "user": 11138328,
        "nice": 0,
        "sys": 7676093,
        "idle": 84030890,
        "irq": 1065281
      },
      {
        "model": "Intel(R) Core(TM) i5-8250U CPU @ 1.60GHz",
        "speed": 1800,
        "user": 8917734,
        "nice": 0,
        "sys": 3286718,
        "idle": 90640625,
        "irq": 170937
      },
      {
        "model": "Intel(R) Core(TM) i5-8250U CPU @ 1.60GHz",
        "speed": 1800,
        "user": 13086437,
        "nice": 0,
        "sys": 6752140,
        "idle": 83006515,
        "irq": 170296
      },
      {
        "model": "Intel(R) Core(TM) i5-8250U CPU @ 1.60GHz",
        "speed": 1800,
        "user": 9151312,
        "nice": 0,
        "sys": 3920937,
        "idle": 89772828,
        "irq": 119187
      },
      {
        "model": "Intel(R) Core(TM) i5-8250U CPU @ 1.60GHz",
        "speed": 1800,
        "user": 10925968,
        "nice": 0,
        "sys": 4811328,
        "idle": 87107781,
        "irq": 149937
      },
      {
        "model": "Intel(R) Core(TM) i5-8250U CPU @ 1.60GHz",
        "speed": 1800,
        "user": 7725937,
        "nice": 0,
        "sys": 3362828,
        "idle": 91756328,
        "irq": 104046
      },
      {
        "model": "Intel(R) Core(TM) i5-8250U CPU @ 1.60GHz",
        "speed": 1800,
        "user": 11311656,
        "nice": 0,
        "sys": 4935437,
        "idle": 86598000,
        "irq": 141281
      },
      {
        "model": "Intel(R) Core(TM) i5-8250U CPU @ 1.60GHz",
        "speed": 1800,
        "user": 8798468,
        "nice": 0,
        "sys": 4403921,
        "idle": 89642703,
        "irq": 99187
      }
    ],
    "networkInterfaces": [
      {
        "name": "Wi-Fi",
        "internal": false,
        "mac": "3c:91:80:22:d3:f9",
        "address": "fe80::dc4b:f773:9c59:86fe",
        "netmask": "ffff:ffff:ffff:ffff::",
        "family": "IPv6",
        "scopeid": 6
      },
      {
        "name": "Wi-Fi",
        "internal": false,
        "mac": "3c:91:80:22:d3:f9",
        "address": "192.168.0.131",
        "netmask": "255.255.255.0",
        "family": "IPv4"
      },
      {
        "name": "Loopback Pseudo-Interface 1",
        "internal": true,
        "mac": "00:00:00:00:00:00",
        "address": "::1",
        "netmask": "ffff:ffff:ffff:ffff:ffff:ffff:ffff:ffff",
        "family": "IPv6",
        "scopeid": 0
      },
      {
        "name": "Loopback Pseudo-Interface 1",
        "internal": true,
        "mac": "00:00:00:00:00:00",
        "address": "127.0.0.1",
        "netmask": "255.0.0.0",
        "family": "IPv4"
      }
    ],
    "host": "LAPTOP-IKT4LIAT"
  },
  "javascriptStack": {
    "message": "No stack.",
    "stack": [
      "Unavailable."
    ]
  },
  "nativeStack": [
    {
      "pc": "0x00007ff7f19219f9",
      "symbol": "std::basic_ostream<char,std::char_traits<char> >::operator<<+10873"
    },
    {
      "pc": "0x00007ff7f1925e1c",
      "symbol": "std::basic_ostream<char,std::char_traits<char> >::operator<<+28316"
    },
    {
      "pc": "0x00007ff7f1924dd8",
      "symbol": "std::basic_ostream<char,std::char_traits<char> >::operator<<+24152"
    },
    {
      "pc": "0x00007ff7f1a2364b",
      "symbol": "v8::base::CPU::has_sse+38363"
    },
    {
      "pc": "0x00007ff7f223a11e",
      "symbol": "v8::Isolate::ReportExternalAllocationLimitReached+94"
    },
    {
      "pc": "0x00007ff7f22221f1",
      "symbol": "v8::SharedArrayBuffer::Externalize+833"
    },
    {
      "pc": "0x00007ff7f20ee74c",
      "symbol": "v8::internal::Heap::EphemeronKeyWriteBarrierFromCode+1436"
    },
    {
      "pc": "0x00007ff7f20f99a0",
      "symbol": "v8::internal::Heap::ProtectUnprotectedMemoryChunks+1312"
    },
    {
      "pc": "0x00007ff7f20f64c4",
      "symbol": "v8::internal::Heap::PageFlagsAreConsistent+3204"
    },
    {
      "pc": "0x00007ff7f20ebce3",
      "symbol": "v8::internal::Heap::CollectGarbage+1283"
    },
    {
      "pc": "0x00007ff7f20ea354",
      "symbol": "v8::internal::Heap::AddRetainedMap+2452"
    },
    {
      "pc": "0x00007ff7f210b53d",
      "symbol": "v8::internal::Factory::NewFillerObject+61"
    },
    {
      "pc": "0x00007ff7f1e70e21",
      "symbol": "v8::internal::interpreter::JumpTableTargetOffsets::iterator::operator=+1665"
    },
    {
      "pc": "0x00007ff7f2684fad",
      "symbol": "v8::internal::SetupIsolateDelegate::SetupHeap+546637"
    },
    {
      "pc": "0x00007ff7f26860a3",
      "symbol": "v8::internal::SetupIsolateDelegate::SetupHeap+550979"
    },
    {
      "pc": "0x0000022ae273e37a",
      "symbol": ""
    }
  ],
  "javascriptHeap": {
    "totalMemory": 2168107008,
    "totalCommittedMemory": 2168107008,
    "usedMemory": 2144069368,
    "availableMemory": 43627680,
    "memoryLimit": 2197815296,
    "heapSpaces": {
      "read_only_space": {
        "memorySize": 262144,
        "committedMemory": 262144,
        "capacity": 32808,
        "used": 32808,
        "available": 0
      },
      "new_space": {
        "memorySize": 16777216,
        "committedMemory": 16777216,
        "capacity": 8379648,
        "used": 2948784,
        "available": 5430864
      },
      "old_space": {
        "memorySize": 1919303680,
        "committedMemory": 1919303680,
        "capacity": 1910357544,
        "used": 1910248664,
        "available": 108880
      },
      "code_space": {
        "memorySize": 1478656,
        "committedMemory": 1478656,
        "capacity": 1356160,
        "used": 1356160,
        "available": 0
      },
      "map_space": {
        "memorySize": 1576960,
        "committedMemory": 1576960,
        "capacity": 960560,
        "used": 960560,
        "available": 0
      },
      "large_object_space": {
        "memorySize": 228659200,
        "committedMemory": 228659200,
        "capacity": 228519608,
        "used": 228519608,
        "available": 0
      },
      "code_large_object_space": {
        "memorySize": 49152,
        "committedMemory": 49152,
        "capacity": 2784,
        "used": 2784,
        "available": 0
      },
      "new_large_object_space": {
        "memorySize": 0,
        "committedMemory": 0,
        "capacity": 8379648,
        "used": 0,
        "available": 8379648
      }
    }
  },
  "resourceUsage": {
    "userCpuSeconds": 206.89,
    "kernelCpuSeconds": 3.359,
    "cpuConsumptionPercent": 186.061,
    "maxRss": 2306433024,
    "pageFaults": {
      "IORequired": 1022031,
      "IONotRequired": 0
    },
    "fsActivity": {
      "reads": 1019,
      "writes": 109
    }
  },
  "libuv": [
  ],
  "environmentVariables": {
    "ALLUSERSPROFILE": "C:\\ProgramData",
    "APPDATA": "C:\\Users\\Gareth\\AppData\\Roaming",
    "asl.log": "Destination=file",
    "BROWSERSLIST_IGNORE_OLD_DATA": "1",
    "CommonProgramFiles": "C:\\Program Files\\Common Files",
    "CommonProgramFiles(x86)": "C:\\Program Files (x86)\\Common Files",
    "CommonProgramW6432": "C:\\Program Files\\Common Files",
    "COMPUTERNAME": "LAPTOP-IKT4LIAT",
    "ComSpec": "C:\\WINDOWS\\system32\\cmd.exe",
    "configsetroot": "C:\\WINDOWS\\ConfigSetRoot",
    "dp0": "C:\\Users\\Gareth\\AppData\\Roaming\\npm\\",
    "DriverData": "C:\\Windows\\System32\\Drivers\\DriverData",
    "FORCE_COLOR": "1",
    "HOMEDRIVE": "C:",
    "HOMEPATH": "\\Users\\Gareth",
    "JEST_WORKER_ID": "3",
    "lib": "C:\\Program Files (x86)\\Microsoft.NET\\OracleClient.Net\\",
    "LOCALAPPDATA": "C:\\Users\\Gareth\\AppData\\Local",
    "LOGONSERVER": "\\\\LAPTOP-IKT4LIAT",
    "NUMBER_OF_PROCESSORS": "8",
    "OneDrive": "C:\\Users\\Gareth\\OneDrive",
    "OneDriveConsumer": "C:\\Users\\Gareth\\OneDrive",
    "OS": "Windows_NT",
    "Path": "C:\\Program Files (x86)\\Intel\\Intel(R) Management Engine Components\\iCLS\\;C:\\Program Files\\Intel\\Intel(R) Management Engine Components\\iCLS\\;C:\\WINDOWS\\system32;C:\\WINDOWS;C:\\WINDOWS\\System32\\Wbem;C:\\WINDOWS\\System32\\WindowsPowerShell\\v1.0\\;C:\\WINDOWS\\System32\\OpenSSH\\;C:\\Program Files (x86)\\Intel\\Intel(R) Management Engine Components\\DAL;C:\\Program Files\\Intel\\Intel(R) Management Engine Components\\DAL;C:\\Program Files\\dotnet\\;C:\\Program Files\\Microsoft SQL Server\\130\\Tools\\Binn\\;C:\\Program Files\\Microsoft SQL Server\\Client SDK\\ODBC\\170\\Tools\\Binn\\;C:\\Program Files (x86)\\Microsoft SQL Server\\150\\DTS\\Binn\\;C:\\Program Files\\Microsoft SQL Server\\Client SDK\\ODBC\\130\\Tools\\Binn\\;C:\\Program Files (x86)\\Microsoft SQL Server\\140\\Tools\\Binn\\;C:\\Program Files\\Microsoft SQL Server\\140\\Tools\\Binn\\;C:\\Program Files\\Microsoft SQL Server\\140\\DTS\\Binn\\;C:\\Program Files (x86)\\Microsoft SQL Server\\80\\Tools\\Binn\\;C:\\Program Files\\nodejs\\;C:\\Program Files\\Git\\cmd;C:\\Program Files (x86)\\Microsoft SQL Server\\120\\DTS\\Binn\\;C:\\Program Files (x86)\\Microsoft SQL Server\\Client SDK\\ODBC\\110\\Tools\\Binn\\;C:\\Program Files (x86)\\Microsoft SQL Server\\120\\Tools\\Binn\\;C:\\Program Files (x86)\\Microsoft SQL Server\\120\\Tools\\Binn\\ManagementStudio\\;C:\\Users\\Gareth\\AppData\\Local\\Microsoft\\WindowsApps;C:\\Users\\Gareth\\AppData\\Local\\GitHubDesktop\\bin;C:\\Users\\Gareth\\AppData\\Roaming\\npm;C:\\Users\\Gareth\\AppData\\Local\\Programs\\Microsoft VS Code\\bin;C:\\Users\\Gareth\\AppData\\Local\\Microsoft\\WindowsApps;",
    "PATHEXT": ".COM;.EXE;.BAT;.CMD;.VBS;.VBE;.JSE;.WSF;.WSH;.MSC",
    "PROCESSOR_ARCHITECTURE": "AMD64",
    "PROCESSOR_IDENTIFIER": "Intel64 Family 6 Model 142 Stepping 10, GenuineIntel",
    "PROCESSOR_LEVEL": "6",
    "PROCESSOR_REVISION": "8e0a",
    "ProgramData": "C:\\ProgramData",
    "ProgramFiles": "C:\\Program Files",
    "ProgramFiles(x86)": "C:\\Program Files (x86)",
    "ProgramW6432": "C:\\Program Files",
    "PROMPT": "$P$G",
    "PSModulePath": "C:\\Program Files\\WindowsPowerShell\\Modules;C:\\WINDOWS\\system32\\WindowsPowerShell\\v1.0\\Modules;C:\\Program Files (x86)\\Microsoft SQL Server\\140\\Tools\\PowerShell\\Modules\\;C:\\Program Files (x86)\\Microsoft SQL Server\\120\\Tools\\PowerShell\\Modules\\",
    "PUBLIC": "C:\\Users\\Public",
    "SESSIONNAME": "Console",
    "SystemDrive": "C:",
    "SystemRoot": "C:\\WINDOWS",
    "TEMP": "C:\\Users\\Gareth\\AppData\\Local\\Temp",
    "TMP": "C:\\Users\\Gareth\\AppData\\Local\\Temp",
    "USERDOMAIN": "LAPTOP-IKT4LIAT",
    "USERDOMAIN_ROAMINGPROFILE": "LAPTOP-IKT4LIAT",
    "USERNAME": "Gareth",
    "USERPROFILE": "C:\\Users\\Gareth",
    "VBOX_MSI_INSTALL_PATH": "C:\\Program Files\\Oracle\\VirtualBox\\",
    "WEBPACK_DEV_SERVER": "true",
    "windir": "C:\\WINDOWS",
    "_prog": "node"
  },
  "sharedObjects": [
    "C:\\Program Files\\nodejs\\node.exe",
    "C:\\WINDOWS\\SYSTEM32\\ntdll.dll",
    "C:\\WINDOWS\\System32\\KERNEL32.DLL",
    "C:\\WINDOWS\\System32\\KERNELBASE.dll",
    "C:\\WINDOWS\\System32\\WS2_32.dll",
    "C:\\WINDOWS\\System32\\RPCRT4.dll",
    "C:\\WINDOWS\\SYSTEM32\\dbghelp.dll",
    "C:\\WINDOWS\\System32\\PSAPI.DLL",
    "C:\\WINDOWS\\System32\\ucrtbase.dll",
    "C:\\WINDOWS\\System32\\ADVAPI32.dll",
    "C:\\WINDOWS\\System32\\msvcrt.dll",
    "C:\\WINDOWS\\SYSTEM32\\IPHLPAPI.DLL",
    "C:\\WINDOWS\\System32\\sechost.dll",
    "C:\\WINDOWS\\SYSTEM32\\USERENV.dll",
    "C:\\WINDOWS\\System32\\USER32.dll",
    "C:\\WINDOWS\\System32\\profapi.dll",
    "C:\\WINDOWS\\System32\\win32u.dll",
    "C:\\WINDOWS\\System32\\GDI32.dll",
    "C:\\WINDOWS\\System32\\gdi32full.dll",
    "C:\\WINDOWS\\System32\\msvcp_win.dll",
    "C:\\WINDOWS\\System32\\CRYPT32.dll",
    "C:\\WINDOWS\\System32\\MSASN1.dll",
    "C:\\WINDOWS\\System32\\bcrypt.dll",
    "C:\\WINDOWS\\SYSTEM32\\WINMM.dll",
    "C:\\WINDOWS\\SYSTEM32\\WINMMBASE.dll",
    "C:\\WINDOWS\\System32\\cfgmgr32.dll",
    "C:\\WINDOWS\\System32\\bcryptPrimitives.dll",
    "C:\\WINDOWS\\System32\\IMM32.DLL",
    "C:\\WINDOWS\\System32\\powrprof.dll",
    "C:\\WINDOWS\\System32\\UMPDC.dll",
    "C:\\WINDOWS\\SYSTEM32\\CRYPTBASE.DLL",
    "C:\\WINDOWS\\system32\\uxtheme.dll",
    "C:\\WINDOWS\\System32\\combase.dll",
    "C:\\WINDOWS\\system32\\mswsock.dll",
    "C:\\WINDOWS\\System32\\kernel.appcore.dll",
    "C:\\WINDOWS\\System32\\NSI.dll",
    "C:\\WINDOWS\\SYSTEM32\\dhcpcsvc6.DLL",
    "C:\\WINDOWS\\SYSTEM32\\dhcpcsvc.DLL",
    "C:\\WINDOWS\\SYSTEM32\\DNSAPI.dll",
    "C:\\WINDOWS\\system32\\napinsp.dll",
    "C:\\WINDOWS\\system32\\pnrpnsp.dll",
    "C:\\WINDOWS\\System32\\winrnr.dll",
    "C:\\WINDOWS\\system32\\NLAapi.dll",
    "C:\\WINDOWS\\system32\\wshbth.dll"
  ]
}